<svg width="24" height="24" viewBox="0 0 24 24" fill="none" xmlns="http://www.w3.org/2000/svg">
<path d="M5 8.99996C5.26522 8.99996 5.51957 9.10531 5.70711 9.29285C5.89464 9.48039 6 9.73474 6 9.99996C7.57114 9.99764 9.09698 10.5262 10.33 11.5H12.5C13.832 11.5 15.03 12.079 15.853 12.999L19 13C19.9453 12.9997 20.8712 13.2674 21.6705 13.772C22.4698 14.2766 23.1097 14.9975 23.516 15.851C21.151 18.972 17.322 21 13 21C10.21 21 7.85 20.397 5.94 19.342C5.87004 19.535 5.74224 19.7018 5.57402 19.8196C5.40579 19.9373 5.20534 20.0003 5 20H2C1.73478 20 1.48043 19.8946 1.29289 19.7071C1.10536 19.5195 1 19.2652 1 19V9.99996C1 9.73474 1.10536 9.48039 1.29289 9.29285C1.48043 9.10531 1.73478 8.99996 2 8.99996H5ZM6.001 12L6 17.021L6.045 17.054C7.84 18.314 10.178 19 13 19C16.004 19 18.799 17.844 20.835 15.87L20.968 15.737L20.848 15.637C20.3758 15.2671 19.8034 15.0476 19.205 15.007L19 15L16.888 14.999C16.961 15.321 17 15.656 17 16V17H8V15L14.79 14.999L14.756 14.921C14.5644 14.5205 14.2696 14.1783 13.9019 13.9294C13.5343 13.6806 13.107 13.5341 12.664 13.505L12.5 13.5H9.57C9.10531 13.0247 8.55027 12.6471 7.93752 12.3895C7.32477 12.1319 6.66669 11.9995 6.002 12H6.001ZM4 11H3V18H4V11ZM13.646 3.57496L14 3.92996L14.354 3.57596C14.5858 3.34217 14.8615 3.15648 15.1653 3.02954C15.469 2.90259 15.7949 2.8369 16.1241 2.83622C16.4533 2.83555 16.7795 2.89991 17.0837 3.02561C17.388 3.15131 17.6645 3.33587 17.8973 3.5687C18.13 3.80153 18.3145 4.07805 18.4401 4.38237C18.5657 4.68669 18.63 5.01282 18.6292 5.34204C18.6285 5.67127 18.5627 5.9971 18.4356 6.30083C18.3086 6.60456 18.1228 6.88021 17.889 7.11196L14 11L10.11 7.10996C9.87622 6.87815 9.69053 6.60244 9.56358 6.29868C9.43664 5.99491 9.37094 5.66906 9.37027 5.33983C9.36959 5.01061 9.43396 4.68449 9.55965 4.38021C9.68535 4.07592 9.86992 3.79946 10.1027 3.5667C10.3356 3.33394 10.6121 3.14945 10.9164 3.02384C11.2207 2.89822 11.5469 2.83396 11.8761 2.83472C12.2053 2.83549 12.5311 2.90128 12.8349 3.02831C13.1386 3.15534 13.4143 3.34111 13.646 3.57496ZM11.526 4.98996C11.4431 5.07238 11.3917 5.18123 11.3808 5.2976C11.3698 5.41397 11.4 5.53051 11.466 5.62696L11.524 5.69596L14 8.16996L16.476 5.69596C16.5588 5.61322 16.61 5.50405 16.6206 5.38746C16.6312 5.27088 16.6006 5.15427 16.534 5.05796L16.476 4.98796C16.3931 4.90528 16.2839 4.85429 16.1673 4.84388C16.0507 4.83346 15.9342 4.86428 15.838 4.93096L15.768 4.98896L13.999 6.75696L12.232 4.98696L12.164 4.93096C12.0677 4.8644 11.9511 4.83376 11.8345 4.84436C11.7179 4.85496 11.6087 4.90613 11.526 4.98896V4.98996Z" fill="black"/>
</svg>
