<svg width="24" height="24" viewBox="0 0 24 24" fill="none" xmlns="http://www.w3.org/2000/svg">
<path d="M12 0C18.7608 0 24 4.95258 24 11.6404C24 18.3283 18.7608 23.2808 12 23.2808C10.8266 23.2839 9.65807 23.1289 8.526 22.82C8.31336 22.7616 8.08708 22.7781 7.8852 22.8668L5.5044 23.9181C5.36056 23.9816 5.2033 24.0089 5.04645 23.9975C4.8896 23.986 4.73797 23.9362 4.60488 23.8524C4.47179 23.7686 4.36133 23.6534 4.2832 23.5169C4.20506 23.3804 4.16166 23.2268 4.1568 23.0696L4.0908 20.9336C4.08648 20.8037 4.05573 20.676 4.00044 20.5584C3.94514 20.4408 3.86646 20.3357 3.7692 20.2495C1.434 18.1627 0 15.1409 0 11.6404C0 4.95258 5.2404 0 12 0ZM4.794 15.0449C4.4556 15.5814 5.1156 16.1862 5.6208 15.8022L9.4068 12.9293C9.53175 12.8349 9.68404 12.7839 9.8406 12.7839C9.99716 12.7839 10.1494 12.8349 10.2744 12.9293L13.0788 15.0293C13.2777 15.1786 13.5054 15.285 13.7475 15.3418C13.9896 15.3986 14.2408 15.4047 14.4854 15.3596C14.7299 15.3145 14.9625 15.2192 15.1683 15.0798C15.3742 14.9403 15.549 14.7597 15.6816 14.5493L19.206 8.95712C19.5444 8.41951 18.8844 7.81468 18.3792 8.1975L14.5932 11.0728C14.4682 11.1671 14.316 11.2182 14.1594 11.2182C14.0028 11.2182 13.8506 11.1671 13.7256 11.0728L10.9212 8.97273C10.7223 8.8235 10.4946 8.71712 10.2525 8.66028C10.0104 8.60344 9.75918 8.59738 9.51464 8.64248C9.27009 8.68758 9.03755 8.78286 8.83166 8.92232C8.62577 9.06177 8.45101 9.24238 8.3184 9.45274L4.794 15.0449Z" fill="white"/>
</svg>
