<svg width="22" height="10" viewBox="0 0 22 10" fill="none" xmlns="http://www.w3.org/2000/svg">
<path d="M-4.45291e-08 -2.14242e-08L21.6008 9.9999L-8.67569e-06 9.99993L-4.45291e-08 -2.14242e-08Z" fill="#9B2F2F"/>
</svg>
