<svg width="34" height="22" viewBox="0 0 34 22" fill="none" xmlns="http://www.w3.org/2000/svg">
<g clip-path="url(#clip0)">
<path d="M0.071228 2.74464C0.071228 1.22883 1.31416 1.52588e-05 2.8474 1.52588e-05H30.6091C32.1424 1.52588e-05 33.3853 1.22883 33.3853 2.74464V19.2124C33.3853 20.7282 32.1424 21.957 30.6091 21.957H2.8474C1.31416 21.957 0.071228 20.7282 0.071228 19.2124V2.74464Z" fill="#D8E3F3"/>
<path d="M28.7423 6.88272H26.9971C26.4694 6.88272 26.0636 7.04323 25.82 7.56486L22.4919 15.0684H24.8459C24.8459 15.0684 25.2518 14.0653 25.333 13.8245C25.5765 13.8245 27.89 13.8245 28.2147 13.8245C28.2959 14.1054 28.4988 15.0283 28.4988 15.0283H30.6094L28.7423 6.88272ZM25.9824 12.1392C26.1853 11.6577 26.8753 9.85205 26.8753 9.85205C26.8753 9.89218 27.0783 9.37054 27.1594 9.08966L27.3218 9.81193C27.3218 9.81193 27.7682 11.7781 27.8494 12.1794H25.9824V12.1392Z" fill="#3362AB"/>
<path d="M22.654 12.382C22.654 14.0673 21.1116 15.1908 18.717 15.1908C17.7023 15.1908 16.7282 14.9902 16.2006 14.7494L16.5253 12.9036L16.8094 13.024C17.5399 13.345 18.027 13.4654 18.9199 13.4654C19.5693 13.4654 20.2593 13.2246 20.2593 12.6629C20.2593 12.3017 19.9752 12.061 19.0823 11.6597C18.2299 11.2585 17.0935 10.6164 17.0935 9.45278C17.0935 7.84773 18.6764 6.76433 20.9087 6.76433C21.761 6.76433 22.4916 6.92483 22.9381 7.12546L22.6134 8.89101L22.451 8.73051C22.0451 8.57 21.5175 8.4095 20.7463 8.4095C19.894 8.44962 19.4881 8.81076 19.4881 9.13177C19.4881 9.4929 19.9752 9.77379 20.7463 10.1349C22.0451 10.7368 22.654 11.419 22.654 12.382Z" fill="#3362AB"/>
<path d="M2.84732 6.96432L2.88791 6.80382H6.37842C6.86547 6.80382 7.23075 6.96432 7.35252 7.48596L8.12367 11.0973C7.35251 9.17126 5.56667 7.60634 2.84732 6.96432Z" fill="#F9B50B"/>
<path d="M13.0348 6.88436L9.5037 15.03H7.10905L5.07968 8.20853C6.54083 9.13143 7.75845 10.576 8.20491 11.5791L8.44843 12.4218L10.6401 6.84424H13.0348V6.88436Z" fill="#3362AB"/>
<path d="M13.9683 6.84424H16.2006L14.7801 15.03H12.5478L13.9683 6.84424Z" fill="#3362AB"/>
</g>
<defs>
<clipPath id="clip0">
<rect width="33.3141" height="21.957" fill="white" transform="translate(0.071228)"/>
</clipPath>
</defs>
</svg>
